hydroPointObsId,resultTime,value,qualifier,otherHydroMeasurements,observations
1,2007-11-08 00:00:00.003,30,,,
2,2008-11-08 00:00:00.002,23,,,
3,2009-11-08 00:00:00.001,22,,,
4,2008-11-08 00:00:00.000,16,,,
5,2006-11-08 00:00:00.001,13,,,
6,2006-11-08 00:00:00.002,35,,,
7,2006-11-08 00:00:00.003,28,,,
8,2006-11-08 00:00:00.004,27,,,
9,2006-11-08 00:00:00.005,23,,,
10,2006-11-08 00:00:00.006,20,,,
11,2006-11-08 00:00:00.007,36,,,
12,2006-11-08 00:00:00.008,29,,,
13,2006-11-08 00:00:00.009,28,,,
14,2006-11-08 00:00:00.010,24,,,
15,2006-11-08 00:00:00.011,21,,,
16,2006-11-08 00:00:00.012,40,,,
17,2006-11-08 00:00:00.013,27,,,
18,2006-11-08 00:00:00.014,26,,,
19,2006-11-08 00:00:00.015,25,,,
20,2006-11-08 00:00:00.016,24,,,
