crop_name,active,crop_ID,ftr,fep,fei,fieswp,fieswi,psi1,psi2,psi3,psi4,NONIRR,IFALLOW,WPFSlope,WPFInt,CropPrice
urban,yes,1,0.25,0.75,0.02,0.0145515,0.01,-0.12192,-0.2743,-11.39952,-80.01,0,0,2,2.5,5
orchards,yes,2,0.33,0.67,0.67,0.1024965,0.04460025,-0.1524,-0.3048,-52.09032,-160.1114,0,0,2,2.5,5
pasture,yes,3,0.59,0.41,0.4,0.1024965,0.01724,0.01,-0.28,-11.4,-80,0,0,2,2.5,5